<?xml version="1.0" encoding="UTF-8"?>
<svg width="15px" height="6px" viewBox="0 0 15 6" version="1.1" xmlns="http://www.w3.org/2000/svg" xmlns:xlink="http://www.w3.org/1999/xlink">
    <!-- Generator: Sketch 51.3 (57544) - http://www.bohemiancoding.com/sketch -->
    <title>adk-icon-bulta-right</title>
    <desc>Created with Sketch.</desc>
    <defs></defs>
    <g id="tālāk" stroke="none" stroke-width="1" fill="none" fill-rule="evenodd">
        <g id="ADK-dizains-1" transform="translate(-1284.000000, -1117.000000)" fill="#C53027" fill-rule="nonzero">
            <g id="popularākie-produkti" transform="translate(0.000000, 733.000000)">
                <g id="pielietojums">
                    <g id="raksti">
                        <g id="Group-5" transform="translate(1264.000000, 357.000000)">
                            <g id="Group-6" transform="translate(7.000000, 7.000000)">
                                <path d="M26.8114781,22.4584495 L14.3611593,22.4584495 L16.1389141,20.6805797 C16.2946567,20.5249291 16.2946567,20.2724345 16.1389141,20.116807 C15.9831714,19.9610643 15.7306768,19.9610643 15.5751644,20.116807 L13.116807,22.5752105 C12.9610643,22.730861 12.9610643,22.9833787 13.116807,23.1389831 L15.5751644,25.5975018 C15.6530127,25.6753961 15.7550375,25.7142857 15.8570392,25.7142857 C15.959041,25.7142857 16.0610658,25.6753961 16.1389141,25.5975018 C16.2946567,25.4418512 16.2946567,25.1893566 16.1389141,25.0337521 L14.3611593,23.2557901 L26.8114781,23.2557901 C27.0316453,23.2557901 27.2101829,23.0772755 27.2101829,22.8571083 C27.2101829,22.6369411 27.0316683,22.4584495 26.8114781,22.4584495 Z" id="adk-icon-bulta-right" transform="translate(20.105091, 22.857143) scale(-1, 1) translate(-20.105091, -22.857143) "></path>
                            </g>
                        </g>
                    </g>
                </g>
            </g>
        </g>
    </g>
</svg>