<?xml version="1.0" encoding="UTF-8"?>
<svg width="13px" height="14px" viewBox="0 0 13 14" version="1.1" xmlns="http://www.w3.org/2000/svg" xmlns:xlink="http://www.w3.org/1999/xlink">
    <!-- Generator: Sketch 53.2 (72643) - https://sketchapp.com -->
    <title>humana-icon-publication_date</title>
    <desc>Created with Sketch.</desc>
    <g id="Page-1" stroke="none" stroke-width="1" fill="none" fill-rule="evenodd">
        <g id="HUMANAS-job-open" transform="translate(-947.000000, -505.000000)" fill="#FFC400" fill-rule="nonzero">
            <g id="sideaprakstss" transform="translate(947.000000, 497.000000)">
                <g id="Group-3">
                    <path d="M1.00000119,21.0000012 L12.0000143,21.0000012 L12.0000143,12.9999917 L1.00000119,12.9999917 L1.00000119,21.0000012 Z M4.00000477,11.4999899 L4.00000477,9.24998719 C4.00000477,9.10936202 3.89062964,8.99998689 3.75000447,8.99998689 L3.25000387,8.99998689 C3.10937871,8.99998689 3.00000358,9.10936202 3.00000358,9.24998719 L3.00000358,11.4999899 C3.00000358,11.640615 3.10937871,11.7499902 3.25000387,11.7499902 L3.75000447,11.7499902 C3.89062964,11.7499902 4.00000477,11.640615 4.00000477,11.4999899 Z M10.0000119,11.4999899 L10.0000119,9.24998719 C10.0000119,9.10936202 9.89063679,8.99998689 9.75001162,8.99998689 L9.25001103,8.99998689 C9.10938586,8.99998689 9.00001073,9.10936202 9.00001073,9.24998719 L9.00001073,11.4999899 C9.00001073,11.640615 9.10938586,11.7499902 9.25001103,11.7499902 L9.75001162,11.7499902 C9.89063679,11.7499902 10.0000119,11.640615 10.0000119,11.4999899 Z M13.0000155,10.9999893 L13.0000155,21.0000012 C13.0000155,21.5468768 12.54689,22.0000024 12.0000143,22.0000024 L1.00000119,22.0000024 C0.45312554,22.0000024 0,21.5468768 0,21.0000012 L0,10.9999893 C0,10.4531136 0.45312554,9.99998808 1.00000119,9.99998808 L2.00000238,9.99998808 L2.00000238,9.24998719 C2.00000238,8.56248637 2.56250305,7.99998569 3.25000387,7.99998569 L3.75000447,7.99998569 C4.43750529,7.99998569 5.00000596,8.56248637 5.00000596,9.24998719 L5.00000596,9.99998808 L8.00000954,9.99998808 L8.00000954,9.24998719 C8.00000954,8.56248637 8.56251021,7.99998569 9.25001103,7.99998569 L9.75001162,7.99998569 C10.4375124,7.99998569 11.0000131,8.56248637 11.0000131,9.24998719 L11.0000131,9.99998808 L12.0000143,9.99998808 C12.54689,9.99998808 13.0000155,10.4531136 13.0000155,10.9999893 Z" id="humana-icon-publication_date"></path>
                </g>
            </g>
        </g>
    </g>
</svg>