<?xml version="1.0" encoding="UTF-8"?>
<svg width="40px" height="40px" viewBox="0 0 40 40" version="1.1" xmlns="http://www.w3.org/2000/svg" xmlns:xlink="http://www.w3.org/1999/xlink">
    <!-- Generator: Sketch 51.3 (57544) - http://www.bohemiancoding.com/sketch -->
    <title>E-mail_icon</title>
    <desc>Created with Sketch.</desc>
    <defs></defs>
    <g id="tālāk" stroke="none" stroke-width="1" fill="none" fill-rule="evenodd">
        <g id="ADK-dizains-kotankti" transform="translate(-224.000000, -505.000000)">
            <g id="kontaktu-ikonas" transform="translate(100.000000, 273.000000)">
                <g id="epasts" transform="translate(0.000000, 232.000000)">
                    <g id="E-mail_icon" transform="translate(124.000000, 0.000000)">
                        <circle id="check_full_copy_4" fill="#C53027" cx="20" cy="20" r="20"></circle>
                        <path d="M26.22302,14.9676607 C26.3863972,15.1325904 26.4768659,15.3561136 26.4741964,15.5882489 L26.4741964,24.4117783 C26.4769722,24.6437604 26.3864757,24.8671405 26.22302,25.0317783 C26.0712025,25.1999453 25.8548689,25.2953803 25.6283141,25.2941313 L13.7865494,25.2941313 C13.5599632,25.2955308 13.3435708,25.2000699 13.1918435,25.0317783 C13.028434,24.8671552 12.9381243,24.6437129 12.9412552,24.4117783 L12.9412552,15.5882489 C12.9383874,15.3560762 13.0288859,15.1324792 13.1924317,14.9676607 C13.3443999,14.7997736 13.5606897,14.7045719 13.7871376,14.705896 L25.6283141,14.705896 C25.8547309,14.7047215 26.0709624,14.7998976 26.22302,14.9676607 Z M14.1177258,15.8811901 L14.1177258,16.6211901 L19.7059611,20.255896 L25.2941964,16.6211901 L25.2941964,15.8811901 L14.1177258,15.8811901 Z M25.2977258,24.1164842 L25.2977258,18.4229548 L19.7094905,22.0576607 L14.1177258,18.4229548 L14.1177258,24.1164842 L25.2977258,24.1164842 Z" id="email" fill="#FFFFFF"></path>
                    </g>
                </g>
            </g>
        </g>
    </g>
</svg>