<?xml version="1.0" encoding="UTF-8"?>
<svg width="13px" height="14px" viewBox="0 0 13 14" version="1.1" xmlns="http://www.w3.org/2000/svg" xmlns:xlink="http://www.w3.org/1999/xlink">
    <!-- Generator: Sketch 51.3 (57544) - http://www.bohemiancoding.com/sketch -->
    <title>fa-calendar </title>
    <desc>Created with Sketch.</desc>
    <defs></defs>
    <g id="tālāk" stroke="none" stroke-width="1" fill="none" fill-rule="evenodd">
        <g id="ADK-dizains-kotankti" transform="translate(-1317.000000, -1100.000000)" fill="#3F515C">
            <g id="Group-5" transform="translate(343.000000, 793.000000)">
                <g id="forma" transform="translate(391.000000, 69.000000)">
                    <g id="Telefonumurs" transform="translate(0.000000, 210.000000)">
                        <g id="Input-lauks" transform="translate(0.597103, 17.545908)">
                            <path d="M583.928571,23.0714286 L586.017857,23.0714286 L586.017857,20.9821429 L583.928571,20.9821429 L583.928571,23.0714286 Z M586.482143,23.0714286 L588.803571,23.0714286 L588.803571,20.9821429 L586.482143,20.9821429 L586.482143,23.0714286 Z M583.928571,20.5178571 L586.017857,20.5178571 L586.017857,18.1964286 L583.928571,18.1964286 L583.928571,20.5178571 Z M586.482143,20.5178571 L588.803571,20.5178571 L588.803571,18.1964286 L586.482143,18.1964286 L586.482143,20.5178571 Z M583.928571,17.7321429 L586.017857,17.7321429 L586.017857,15.6428571 L583.928571,15.6428571 L583.928571,17.7321429 Z M589.267857,23.0714286 L591.589286,23.0714286 L591.589286,20.9821429 L589.267857,20.9821429 L589.267857,23.0714286 Z M586.482143,17.7321429 L588.803571,17.7321429 L588.803571,15.6428571 L586.482143,15.6428571 L586.482143,17.7321429 Z M592.053571,23.0714286 L594.142857,23.0714286 L594.142857,20.9821429 L592.053571,20.9821429 L592.053571,23.0714286 Z M589.267857,20.5178571 L591.589286,20.5178571 L591.589286,18.1964286 L589.267857,18.1964286 L589.267857,20.5178571 Z M586.714286,14.25 L586.714286,12.1607143 C586.714286,12.0978419 586.691313,12.043434 586.645368,11.9974888 C586.599423,11.9515437 586.545015,11.9285714 586.482143,11.9285714 L586.017857,11.9285714 C585.954985,11.9285714 585.900577,11.9515437 585.854632,11.9974888 C585.808687,12.043434 585.785714,12.0978419 585.785714,12.1607143 L585.785714,14.25 C585.785714,14.3128723 585.808687,14.3672803 585.854632,14.4132254 C585.900577,14.4591706 585.954985,14.4821429 586.017857,14.4821429 L586.482143,14.4821429 C586.545015,14.4821429 586.599423,14.4591706 586.645368,14.4132254 C586.691313,14.3672803 586.714286,14.3128723 586.714286,14.25 Z M592.053571,20.5178571 L594.142857,20.5178571 L594.142857,18.1964286 L592.053571,18.1964286 L592.053571,20.5178571 Z M589.267857,17.7321429 L591.589286,17.7321429 L591.589286,15.6428571 L589.267857,15.6428571 L589.267857,17.7321429 Z M592.053571,17.7321429 L594.142857,17.7321429 L594.142857,15.6428571 L592.053571,15.6428571 L592.053571,17.7321429 Z M592.285714,14.25 L592.285714,12.1607143 C592.285714,12.0978419 592.262742,12.043434 592.216797,11.9974888 C592.170852,11.9515437 592.116444,11.9285714 592.053571,11.9285714 L591.589286,11.9285714 C591.526413,11.9285714 591.472005,11.9515437 591.42606,11.9974888 C591.380115,12.043434 591.357143,12.0978419 591.357143,12.1607143 L591.357143,14.25 C591.357143,14.3128723 591.380115,14.3672803 591.42606,14.4132254 C591.472005,14.4591706 591.526413,14.4821429 591.589286,14.4821429 L592.053571,14.4821429 C592.116444,14.4821429 592.170852,14.4591706 592.216797,14.4132254 C592.262742,14.3672803 592.285714,14.3128723 592.285714,14.25 Z M595.071429,13.7857143 L595.071429,23.0714286 C595.071429,23.3229179 594.97954,23.5405497 594.795759,23.7243304 C594.611978,23.908111 594.394346,24 594.142857,24 L583.928571,24 C583.677082,24 583.45945,23.908111 583.27567,23.7243304 C583.091889,23.5405497 583,23.3229179 583,23.0714286 L583,13.7857143 C583,13.5342249 583.091889,13.3165932 583.27567,13.1328125 C583.45945,12.9490318 583.677082,12.8571429 583.928571,12.8571429 L584.857143,12.8571429 L584.857143,12.1607143 C584.857143,11.8415163 584.970795,11.5682675 585.198103,11.3409598 C585.42541,11.1136521 585.698659,11 586.017857,11 L586.482143,11 C586.801341,11 587.07459,11.1136521 587.301897,11.3409598 C587.529205,11.5682675 587.642857,11.8415163 587.642857,12.1607143 L587.642857,12.8571429 L590.428571,12.8571429 L590.428571,12.1607143 C590.428571,11.8415163 590.542224,11.5682675 590.769531,11.3409598 C590.996839,11.1136521 591.270088,11 591.589286,11 L592.053571,11 C592.372769,11 592.646018,11.1136521 592.873326,11.3409598 C593.100634,11.5682675 593.214286,11.8415163 593.214286,12.1607143 L593.214286,12.8571429 L594.142857,12.8571429 C594.394346,12.8571429 594.611978,12.9490318 594.795759,13.1328125 C594.97954,13.3165932 595.071429,13.5342249 595.071429,13.7857143 Z" id="fa-calendar-"></path>
                        </g>
                    </g>
                </g>
            </g>
        </g>
    </g>
</svg>